<svg xmlns="http://www.w3.org/2000/svg" xmlns:xlink="http://www.w3.org/1999/xlink" width="50" height="49.705" viewBox="0 0 50 49.705">
  <defs>
    <filter id="Ellipse_20" x="0" y="0" width="50" height="49.705" filterUnits="userSpaceOnUse">
      <feOffset dy="2" input="SourceAlpha"/>
      <feGaussianBlur stdDeviation="3" result="blur"/>
      <feFlood flood-opacity="0.059"/>
      <feComposite operator="in" in2="blur"/>
      <feComposite in="SourceGraphic"/>
    </filter>
  </defs>
  <g id="Group_10352" data-name="Group 10352" transform="translate(-1338.789 -517.5)">
    <g transform="matrix(1, 0, 0, 1, 1338.79, 517.5)" filter="url(#Ellipse_20)">
      <ellipse id="Ellipse_20-2" data-name="Ellipse 20" cx="16" cy="15.853" rx="16" ry="15.853" transform="translate(41 38.71) rotate(180)" fill="#a7e2ff"/>
    </g>
    <g id="Icon_feather-download" data-name="Icon feather-download" transform="translate(1358.484 535.048)">
      <path id="Path_37876" data-name="Path 37876" d="M10.609,0V2.358A1.179,1.179,0,0,1,9.43,3.536H1.179A1.179,1.179,0,0,1,0,2.358V0" transform="translate(0 7.073)" fill="none" stroke="#023047" stroke-linecap="round" stroke-linejoin="round" stroke-width="1.3"/>
      <path id="Path_37877" data-name="Path 37877" d="M0,0,2.947,2.947,5.894,0" transform="translate(2.358 4.126)" fill="none" stroke="#023047" stroke-linecap="round" stroke-linejoin="round" stroke-width="1.3"/>
      <path id="Path_37878" data-name="Path 37878" d="M0,7.073V0" transform="translate(5.304 0)" fill="none" stroke="#023047" stroke-linecap="round" stroke-linejoin="round" stroke-width="1.3"/>
    </g>
  </g>
</svg>
