<svg xmlns="http://www.w3.org/2000/svg" width="24.067" height="24.117" viewBox="0 0 24.067 24.117">
  <g id="filter-icon" transform="translate(-285.969 -365.606)">
    <path id="Path_14848" data-name="Path 14848" d="M298.329,384.49a3.686,3.686,0,0,0-.076.4l-.069.413H286.946a.979.979,0,0,0-.954.776.957.957,0,0,0,.562,1.089,1.533,1.533,0,0,0,.6.094q5.248.01,10.481,0h.6v.248a2.232,2.232,0,0,0,2.229,2.213,1.319,1.319,0,0,0,.143-.005h.657c.59,0,1.181,0,1.77-.011a2.083,2.083,0,0,0,1.629-.848,2.368,2.368,0,0,0,.477-1.352l.007-.242h3.844a.984.984,0,1,0,.092-1.966h0a.5.5,0,0,0-.078,0H305.44l-.258.1-.062-.51a2.164,2.164,0,0,0-2.031-2.026,23.615,23.615,0,0,0-2.789,0,2.142,2.142,0,0,0-1.971,1.627Zm1.906.326h2.91v2.916h-2.91Z" fill="#023047"/>
    <path id="Path_14849" data-name="Path 14849" d="M309.045,368.076h-.025c-.258-.007-.516,0-.773,0h-.6l-.073-.454a2.191,2.191,0,0,0-2.176-2.009h-.05c-.984-.011-1.777-.01-2.5.007a2.149,2.149,0,0,0-2.027,1.557,3.544,3.544,0,0,0-.088.434c-.013.08-.027.163-.042.25l-.04.2H287.643c-.226,0-.454-.005-.68,0a.984.984,0,1,0-.006,1.968h13.7l.048.272a.743.743,0,0,1,.016.1,2.2,2.2,0,0,0,2.2,2.094h.022c.807.016,1.618.016,2.416,0h.016a2.183,2.183,0,0,0,2.146-1.7c.027-.115.042-.23.059-.352l.061-.4h1.422a.981.981,0,1,0-.017-1.962Zm-3.43,2.436h-2.95v-1.636c0-.287,0-.573.011-.859a.479.479,0,0,1,.4-.439c.607-.01,1.217-.01,1.844-.009h.7Z" fill="#023047"/>
    <path id="Path_14850" data-name="Path 14850" d="M309.131,376.689h-11.34l-.04-.439a2.109,2.109,0,0,0-1.888-1.984,20.038,20.038,0,0,0-2.206-.031c-.3.007-.6.014-.9.015a.907.907,0,0,0-.25.056,2.239,2.239,0,0,0-1.638,2.135v.247H287.1a1.746,1.746,0,0,0-.429.041.975.975,0,0,0,.257,1.908c.755.007,1.509.005,2.263,0h1.663l.041.411a2.238,2.238,0,0,0,2.23,2.055c.837.007,1.669.013,2.5,0a2.168,2.168,0,0,0,2.027-1.56,4.62,4.62,0,0,0,.1-.486l.078-.415h10.009c.43,0,.86,0,1.291-.013a.942.942,0,0,0,.893-.916.959.959,0,0,0-.9-1.028Zm-13.352,2.43h-2.913V376.2h2.913Z" fill="#023047"/>
  </g>
</svg>
